\relax 
\select@language{english}
\@writefile{toc}{\select@language{english}}
\@writefile{lof}{\select@language{english}}
\@writefile{lot}{\select@language{english}}
\@writefile{toc}{\contentsline {section}{\numberline {1}Introduction}{1}}
\@writefile{toc}{\contentsline {section}{\numberline {2}Data and Results}{1}}
\@writefile{toc}{\contentsline {subsection}{\numberline {2.1}Data table for Day 3 part A. “Using springs and masses to model bond vibrations”}{1}}
\@writefile{lot}{\contentsline {table}{\numberline {1}{\ignorespaces Frequency of springs and masses}}{1}}
\newlabel{my-label}{{1}{1}}
\@writefile{toc}{\contentsline {subsection}{\numberline {2.2}A table of bonds, bond lengths, bond energies, and stretching vibrational frequencies found by IR and/or by Gaussian. Provide references for all of your sources for bond lengths and bond energies. }{2}}
\@writefile{lot}{\contentsline {table}{\numberline {2}{\ignorespaces My caption}}{2}}
\newlabel{my-label}{{2}{2}}
\@writefile{toc}{\contentsline {section}{\numberline {3}Discussion}{2}}
\@writefile{toc}{\contentsline {subsection}{\numberline {3.1}Thoroughly discuss what you deduced about the relationship between bond strength and vibrational frequency. Use as much evidence from the lab as you can find. Give an instance where a stronger bond did NOT vibrate at a higher frequency than a weaker bond and explain why this occurred}{2}}
\@writefile{toc}{\contentsline {subsection}{\numberline {3.2}Discuss the relationship between mass and the vibrational frequency of a bond, using at least two examples from the lab.}{2}}
\@writefile{toc}{\contentsline {subsection}{\numberline {3.3}Clearly explain the evidence you have for the presence of resonance in the acetate ion.}{2}}
\@writefile{toc}{\contentsline {subsection}{\numberline {3.4}Answer Laboratory Report Question 5 and assign the “Mystery Spectra” on the back of this handout. It is not necessary to incorporate these answers into the discussion.}{3}}
\@writefile{toc}{\contentsline {section}{\numberline {4}References}{3}}
