# Fdb version 3
["pdflatex"] 0 "/home/xen/Documents/Notes/CSC350/ps06.tex" "ps06.pdf" "ps06" 0
  "/home/xen/Documents/Notes/CSC350/ps06.tex" 0 -1 0 ""
  "ps06.aux" 1494364978 8 a94a2480d3289e625eea47cd1b285758 ""
  (generated)
  "ps06.log"
  "ps06.pdf"
